RMarkdown and Regression
…
Load Data

#-- Load Data
url = 'https://www.statlearning.com/s/Advertising.csv'
advert = read_csv(url, 
                  col_types = cols(X1='_')) # skip first column

## Warning: Missing column names filled in: 'X1' [1]

#-- Show data
advert 

## # A tibble: 200 x 4
##       TV radio newspaper sales
##    <dbl> <dbl>     <dbl> <dbl>
##  1 230.   37.8      69.2  22.1
##  2  44.5  39.3      45.1  10.4
##  3  17.2  45.9      69.3   9.3
##  4 152.   41.3      58.5  18.5
##  5 181.   10.8      58.4  12.9
##  6   8.7  48.9      75     7.2
##  7  57.5  32.8      23.5  11.8
##  8 120.   19.6      11.6  13.2
##  9   8.6   2.1       1     4.8
## 10 200.    2.6      21.2  10.6
## #  with 190 more rows
…
To use faceting to show all plots in same plot, I need to convert the data into long format:

#- convert to "long" format
advert_long = advert %>% 
  pivot_longer(cols=-sales,
               names_to="predictor",
               values_to="budget")

advert_long

## # A tibble: 600 x 3
##    sales predictor budget
##    <dbl> <chr>      <dbl>
##  1  22.1 TV         230. 
##  2  22.1 radio       37.8
##  3  22.1 newspaper   69.2
##  4  10.4 TV          44.5
##  5  10.4 radio       39.3
##  6  10.4 newspaper   45.1
##  7   9.3 TV          17.2
##  8   9.3 radio       45.9
##  9   9.3 newspaper   69.3
## 10  18.5 TV         152. 
## #  with 590 more rows
…
#- tidy model summary
lm.all %>% 
  broom::glance()

## # A tibble: 1 x 12
##   r.squared adj.r.squared sigma statistic  p.value    df logLik   AIC   BIC
##       <dbl>         <dbl> <dbl>     <dbl>    <dbl> <dbl>  <dbl> <dbl> <dbl>
## 1     0.897         0.896  1.69      570. 1.58e-96     3  -386.  782.  799.
## #  with 3 more variables: deviance <dbl>, df.residual <int>, nobs <int>

#- add model output to the original data
lm.all %>% broom::augment()

## # A tibble: 200 x 10
##    sales    TV radio newspaper .fitted  .resid    .hat .sigma .cooksd .std.resid
##    <dbl> <dbl> <dbl>     <dbl>   <dbl>   <dbl>   <dbl>  <dbl>   <dbl>      <dbl>
##  1  22.1 230.   37.8      69.2   20.5   1.58   0.0252    1.69 5.80e-3     0.947 
##  2  10.4  44.5  39.3      45.1   12.3  -1.94   0.0194    1.68 6.67e-3    -1.16  
##  3   9.3  17.2  45.9      69.3   12.3  -3.01   0.0392    1.68 3.38e-2    -1.82  
##  4  18.5 152.   41.3      58.5   17.6   0.902  0.0166    1.69 1.23e-3     0.540 
##  5  12.9 181.   10.8      58.4   13.2  -0.289  0.0235    1.69 1.81e-4    -0.173 
##  6   7.2   8.7  48.9      75     12.5  -5.28   0.0475    1.64 1.28e-1    -3.21  
##  7  11.8  57.5  32.8      23.5   11.7   0.0702 0.0144    1.69 6.45e-6     0.0420
##  8  13.2 120.   19.6      11.6   12.1   1.08   0.00918   1.69 9.55e-4     0.642 
##  9   4.8   8.6   2.1       1      3.73  1.07   0.0307    1.69 3.31e-3     0.646 
## 10  10.6 200.    2.6      21.2   12.6  -1.95   0.0171    1.68 5.95e-3    -1.17  
## #  with 190 more rows
…
